{
  "configVersion": 2,
  "packages": [
    {
      "name": "archive",
      "rootUri": "file:///home/tharicki.pereira/.pub-cache/hosted/pub.dartlang.org/archive-2.0.11",
      "packageUri": "lib/",
      "languageVersion": "2.0"
    },
    {
      "name": "args",
      "rootUri": "file:///home/tharicki.pereira/.pub-cache/hosted/pub.dartlang.org/args-1.5.2",
      "packageUri": "lib/",
      "languageVersion": "2.0"
    },
    {
      "name": "async",
      "rootUri": "file:///home/tharicki.pereira/.pub-cache/hosted/pub.dartlang.org/async-2.4.0",
      "packageUri": "lib/",
      "languageVersion": "2.0"
    },
    {
      "name": "boolean_selector",
      "rootUri": "file:///home/tharicki.pereira/.pub-cache/hosted/pub.dartlang.org/boolean_selector-1.0.5",
      "packageUri": "lib/",
      "languageVersion": "2.0"
    },
    {
      "name": "cached_network_image",
      "rootUri": "file:///home/tharicki.pereira/.pub-cache/hosted/pub.dartlang.org/cached_network_image-2.1.0+1",
      "packageUri": "lib/",
      "languageVersion": "2.1"
    },
    {
      "name": "charcode",
      "rootUri": "file:///home/tharicki.pereira/.pub-cache/hosted/pub.dartlang.org/charcode-1.1.2",
      "packageUri": "lib/",
      "languageVersion": "1.0"
    },
    {
      "name": "clock",
      "rootUri": "file:///home/tharicki.pereira/.pub-cache/hosted/pub.dartlang.org/clock-1.0.1",
      "packageUri": "lib/",
      "languageVersion": "2.0"
    },
    {
      "name": "collection",
      "rootUri": "file:///home/tharicki.pereira/.pub-cache/hosted/pub.dartlang.org/collection-1.14.11",
      "packageUri": "lib/",
      "languageVersion": "2.0"
    },
    {
      "name": "convert",
      "rootUri": "file:///home/tharicki.pereira/.pub-cache/hosted/pub.dartlang.org/convert-2.1.1",
      "packageUri": "lib/",
      "languageVersion": "1.17"
    },
    {
      "name": "crypto",
      "rootUri": "file:///home/tharicki.pereira/.pub-cache/hosted/pub.dartlang.org/crypto-2.1.3",
      "packageUri": "lib/",
      "languageVersion": "2.1"
    },
    {
      "name": "cupertino_icons",
      "rootUri": "file:///home/tharicki.pereira/.pub-cache/hosted/pub.dartlang.org/cupertino_icons-0.1.3",
      "packageUri": "lib/",
      "languageVersion": "2.0"
    },
    {
      "name": "file",
      "rootUri": "file:///home/tharicki.pereira/.pub-cache/hosted/pub.dartlang.org/file-5.1.0",
      "packageUri": "lib/",
      "languageVersion": "2.2"
    },
    {
      "name": "flutter",
      "rootUri": "file:///home/tharicki.pereira/flutter/packages/flutter",
      "packageUri": "lib/",
      "languageVersion": "2.2"
    },
    {
      "name": "flutter_cache_manager",
      "rootUri": "file:///home/tharicki.pereira/.pub-cache/hosted/pub.dartlang.org/flutter_cache_manager-1.2.1",
      "packageUri": "lib/",
      "languageVersion": "2.6"
    },
    {
      "name": "flutter_easyloading",
      "rootUri": "file:///home/tharicki.pereira/.pub-cache/hosted/pub.dartlang.org/flutter_easyloading-1.1.4",
      "packageUri": "lib/",
      "languageVersion": "2.2"
    },
    {
      "name": "flutter_launcher_icons",
      "rootUri": "file:///home/tharicki.pereira/.pub-cache/hosted/pub.dartlang.org/flutter_launcher_icons-0.7.4",
      "packageUri": "lib/",
      "languageVersion": "2.2"
    },
    {
      "name": "flutter_spinkit",
      "rootUri": "file:///home/tharicki.pereira/.pub-cache/hosted/pub.dartlang.org/flutter_spinkit-4.1.2+1",
      "packageUri": "lib/",
      "languageVersion": "2.5"
    },
    {
      "name": "flutter_test",
      "rootUri": "file:///home/tharicki.pereira/flutter/packages/flutter_test",
      "packageUri": "lib/",
      "languageVersion": "2.2"
    },
    {
      "name": "flutter_web_plugins",
      "rootUri": "file:///home/tharicki.pereira/flutter/packages/flutter_web_plugins",
      "packageUri": "lib/",
      "languageVersion": "2.0"
    },
    {
      "name": "fluttertoast",
      "rootUri": "file:///home/tharicki.pereira/.pub-cache/hosted/pub.dartlang.org/fluttertoast-4.0.1",
      "packageUri": "lib/",
      "languageVersion": "2.0"
    },
    {
      "name": "http",
      "rootUri": "file:///home/tharicki.pereira/.pub-cache/hosted/pub.dartlang.org/http-0.12.0+4",
      "packageUri": "lib/",
      "languageVersion": "2.4"
    },
    {
      "name": "http_parser",
      "rootUri": "file:///home/tharicki.pereira/.pub-cache/hosted/pub.dartlang.org/http_parser-3.1.4",
      "packageUri": "lib/",
      "languageVersion": "2.3"
    },
    {
      "name": "image",
      "rootUri": "file:///home/tharicki.pereira/.pub-cache/hosted/pub.dartlang.org/image-2.1.4",
      "packageUri": "lib/",
      "languageVersion": "2.0"
    },
    {
      "name": "intl",
      "rootUri": "file:///home/tharicki.pereira/.pub-cache/hosted/pub.dartlang.org/intl-0.16.1",
      "packageUri": "lib/",
      "languageVersion": "2.5"
    },
    {
      "name": "matcher",
      "rootUri": "file:///home/tharicki.pereira/.pub-cache/hosted/pub.dartlang.org/matcher-0.12.6",
      "packageUri": "lib/",
      "languageVersion": "2.2"
    },
    {
      "name": "meta",
      "rootUri": "file:///home/tharicki.pereira/.pub-cache/hosted/pub.dartlang.org/meta-1.1.8",
      "packageUri": "lib/",
      "languageVersion": "1.12"
    },
    {
      "name": "path",
      "rootUri": "file:///home/tharicki.pereira/.pub-cache/hosted/pub.dartlang.org/path-1.6.4",
      "packageUri": "lib/",
      "languageVersion": "2.0"
    },
    {
      "name": "path_provider",
      "rootUri": "file:///home/tharicki.pereira/.pub-cache/hosted/pub.dartlang.org/path_provider-1.6.5",
      "packageUri": "lib/",
      "languageVersion": "2.0"
    },
    {
      "name": "path_provider_macos",
      "rootUri": "file:///home/tharicki.pereira/.pub-cache/hosted/pub.dartlang.org/path_provider_macos-0.0.4",
      "packageUri": "lib/",
      "languageVersion": "2.1"
    },
    {
      "name": "path_provider_platform_interface",
      "rootUri": "file:///home/tharicki.pereira/.pub-cache/hosted/pub.dartlang.org/path_provider_platform_interface-1.0.1",
      "packageUri": "lib/",
      "languageVersion": "2.0"
    },
    {
      "name": "pedantic",
      "rootUri": "file:///home/tharicki.pereira/.pub-cache/hosted/pub.dartlang.org/pedantic-1.8.0+1",
      "packageUri": "lib/",
      "languageVersion": "2.1"
    },
    {
      "name": "petitparser",
      "rootUri": "file:///home/tharicki.pereira/.pub-cache/hosted/pub.dartlang.org/petitparser-2.4.0",
      "packageUri": "lib/",
      "languageVersion": "2.4"
    },
    {
      "name": "platform",
      "rootUri": "file:///home/tharicki.pereira/.pub-cache/hosted/pub.dartlang.org/platform-2.2.1",
      "packageUri": "lib/",
      "languageVersion": "1.24"
    },
    {
      "name": "plugin_platform_interface",
      "rootUri": "file:///home/tharicki.pereira/.pub-cache/hosted/pub.dartlang.org/plugin_platform_interface-1.0.2",
      "packageUri": "lib/",
      "languageVersion": "2.1"
    },
    {
      "name": "provider",
      "rootUri": "file:///home/tharicki.pereira/.pub-cache/hosted/pub.dartlang.org/provider-3.2.0",
      "packageUri": "lib/",
      "languageVersion": "2.0"
    },
    {
      "name": "quiver",
      "rootUri": "file:///home/tharicki.pereira/.pub-cache/hosted/pub.dartlang.org/quiver-2.0.5",
      "packageUri": "lib/",
      "languageVersion": "2.0"
    },
    {
      "name": "rxdart",
      "rootUri": "file:///home/tharicki.pereira/.pub-cache/hosted/pub.dartlang.org/rxdart-0.23.1",
      "packageUri": "lib/",
      "languageVersion": "2.6"
    },
    {
      "name": "searchable_dropdown",
      "rootUri": "file:///home/tharicki.pereira/.pub-cache/hosted/pub.dartlang.org/searchable_dropdown-1.1.3",
      "packageUri": "lib/",
      "languageVersion": "2.1"
    },
    {
      "name": "shared_preferences",
      "rootUri": "file:///home/tharicki.pereira/.pub-cache/hosted/pub.dartlang.org/shared_preferences-0.5.6+3",
      "packageUri": "lib/",
      "languageVersion": "2.0"
    },
    {
      "name": "shared_preferences_macos",
      "rootUri": "file:///home/tharicki.pereira/.pub-cache/hosted/pub.dartlang.org/shared_preferences_macos-0.0.1+6",
      "packageUri": "lib/",
      "languageVersion": "2.1"
    },
    {
      "name": "shared_preferences_platform_interface",
      "rootUri": "file:///home/tharicki.pereira/.pub-cache/hosted/pub.dartlang.org/shared_preferences_platform_interface-1.0.3",
      "packageUri": "lib/",
      "languageVersion": "2.0"
    },
    {
      "name": "shared_preferences_web",
      "rootUri": "file:///home/tharicki.pereira/.pub-cache/hosted/pub.dartlang.org/shared_preferences_web-0.1.2+4",
      "packageUri": "lib/",
      "languageVersion": "2.0"
    },
    {
      "name": "sky_engine",
      "rootUri": "file:///home/tharicki.pereira/flutter/bin/cache/pkg/sky_engine",
      "packageUri": "lib/",
      "languageVersion": "1.11"
    },
    {
      "name": "source_span",
      "rootUri": "file:///home/tharicki.pereira/.pub-cache/hosted/pub.dartlang.org/source_span-1.5.5",
      "packageUri": "lib/",
      "languageVersion": "1.8"
    },
    {
      "name": "sprintf",
      "rootUri": "file:///home/tharicki.pereira/.pub-cache/hosted/pub.dartlang.org/sprintf-4.0.2",
      "packageUri": "lib/",
      "languageVersion": "2.7"
    },
    {
      "name": "sqflite",
      "rootUri": "file:///home/tharicki.pereira/.pub-cache/hosted/pub.dartlang.org/sqflite-1.3.0",
      "packageUri": "lib/",
      "languageVersion": "2.7"
    },
    {
      "name": "sqflite_common",
      "rootUri": "file:///home/tharicki.pereira/.pub-cache/hosted/pub.dartlang.org/sqflite_common-1.0.0+1",
      "packageUri": "lib/",
      "languageVersion": "2.7"
    },
    {
      "name": "stack_trace",
      "rootUri": "file:///home/tharicki.pereira/.pub-cache/hosted/pub.dartlang.org/stack_trace-1.9.3",
      "packageUri": "lib/",
      "languageVersion": "1.23"
    },
    {
      "name": "stream_channel",
      "rootUri": "file:///home/tharicki.pereira/.pub-cache/hosted/pub.dartlang.org/stream_channel-2.0.0",
      "packageUri": "lib/",
      "languageVersion": "2.0"
    },
    {
      "name": "string_scanner",
      "rootUri": "file:///home/tharicki.pereira/.pub-cache/hosted/pub.dartlang.org/string_scanner-1.0.5",
      "packageUri": "lib/",
      "languageVersion": "2.0"
    },
    {
      "name": "synchronized",
      "rootUri": "file:///home/tharicki.pereira/.pub-cache/hosted/pub.dartlang.org/synchronized-2.2.0",
      "packageUri": "lib/",
      "languageVersion": "2.6"
    },
    {
      "name": "term_glyph",
      "rootUri": "file:///home/tharicki.pereira/.pub-cache/hosted/pub.dartlang.org/term_glyph-1.1.0",
      "packageUri": "lib/",
      "languageVersion": "1.8"
    },
    {
      "name": "test_api",
      "rootUri": "file:///home/tharicki.pereira/.pub-cache/hosted/pub.dartlang.org/test_api-0.2.11",
      "packageUri": "lib/",
      "languageVersion": "2.2"
    },
    {
      "name": "typed_data",
      "rootUri": "file:///home/tharicki.pereira/.pub-cache/hosted/pub.dartlang.org/typed_data-1.1.6",
      "packageUri": "lib/",
      "languageVersion": "2.0"
    },
    {
      "name": "uuid",
      "rootUri": "file:///home/tharicki.pereira/.pub-cache/hosted/pub.dartlang.org/uuid-2.0.4",
      "packageUri": "lib/",
      "languageVersion": "2.0"
    },
    {
      "name": "vector_math",
      "rootUri": "file:///home/tharicki.pereira/.pub-cache/hosted/pub.dartlang.org/vector_math-2.0.8",
      "packageUri": "lib/",
      "languageVersion": "2.0"
    },
    {
      "name": "xml",
      "rootUri": "file:///home/tharicki.pereira/.pub-cache/hosted/pub.dartlang.org/xml-3.5.0",
      "packageUri": "lib/",
      "languageVersion": "2.3"
    },
    {
      "name": "yaml",
      "rootUri": "file:///home/tharicki.pereira/.pub-cache/hosted/pub.dartlang.org/yaml-2.2.0",
      "packageUri": "lib/",
      "languageVersion": "2.0"
    },
    {
      "name": "vorazrtr",
      "rootUri": "../",
      "packageUri": "lib/",
      "languageVersion": "2.1"
    }
  ],
  "generated": "2020-04-23T19:56:43.744276Z",
  "generator": "pub",
  "generatorVersion": "2.7.2"
}
